<?xml version="1.0" encoding="utf-8"?>
<!-- Generator: Adobe Illustrator 19.2.1, SVG Export Plug-In . SVG Version: 6.00 Build 0)  -->
<svg version="1.1" id="Layer_1" xmlns="http://www.w3.org/2000/svg" xmlns:xlink="http://www.w3.org/1999/xlink" x="0px" y="0px"
	 width="40px" height="50px" viewBox="0 0 40 50" style="enable-background:new 0 0 40 50;" xml:space="preserve">
<style type="text/css">
	.st0{fill:#F69DAF;}
	.st1{fill:#FFFFFF;}
</style>
<rect class="st0" width="40" height="50"/>
<g>
	<path class="st1" d="M17.5,18.1l6.4,6.5c0.1,0.1,0.1,0.2,0.1,0.3s-0.1,0.2-0.1,0.3l-6.4,6.5c-0.1,0.1-0.2,0.1-0.3,0.1
		c-0.1,0-0.2-0.1-0.3-0.1l-0.7-0.7C16.1,31.1,16,31,16,30.8c0-0.1,0.1-0.2,0.1-0.3l5.4-5.5l-5.4-5.5c-0.1-0.1-0.1-0.2-0.1-0.3
		c0-0.1,0.1-0.2,0.1-0.3l0.7-0.7c0.1-0.1,0.2-0.1,0.3-0.1C17.3,18,17.4,18.1,17.5,18.1z"/>
</g>
</svg>
